What the Package Does (One Line, Title Case) • brnome
…
joao_estado <- localidades %>% 
  filter(tipo == "Estado") %>% 
  mutate(
    freq = map(
      localidade,
      ~brnome_freq(nome = "joao", localidade_cod = .x) 
    )
  ) %>% 
  select(freq) %>% 
  unnest()

joao_estado
#> # A tibble: 243 x 7
#>    nome  sexo  localidade_cod localidade_nome nascimento_peri~ nascimento_deca~
#>    <chr> <lgl>          <int> <chr>           <chr>                       <int>
#>  1 JOAO  NA                11 Rondônia        [    , 1930]                 1930
#>  2 JOAO  NA                11 Rondônia        [1930, 1940]                 1930
#>  3 JOAO  NA                11 Rondônia        [1940, 1950]                 1940
#>  4 JOAO  NA                11 Rondônia        [1950, 1960]                 1950
#>  5 JOAO  NA                11 Rondônia        [1960, 1970]                 1960
#>  6 JOAO  NA                11 Rondônia        [1970, 1980]                 1970
#>  7 JOAO  NA                11 Rondônia        [1980, 1990]                 1980
#>  8 JOAO  NA                11 Rondônia        [1990, 2000]                 1990
#>  9 JOAO  NA                11 Rondônia        [2000, 2010]                 2000
#> 10 JOAO  NA                12 Acre            [    , 1930]                 1930
#> # ... with 233 more rows, and 1 more variable: frequencia <int>
…
